<svg version="1.2" xmlns="http://www.w3.org/2000/svg" viewBox="0 0 1040 835" width="1040" height="835">
	<title>mopso-svg-svg</title>
	<style>
		.s0 { fill: #ffbd5b } 
		.s1 { fill: #7ee4d7 } 
		.s2 { fill: #0ec3cb } 
		.s3 { fill: #fe924d } 
		.s4 { fill: #a6a6a6 } 
		.s5 { fill: #a7a6a6 } 
	</style>
	<g id="Livello 1">
		<g id="&lt;Group&gt;">
			<path id="&lt;Path&gt;" class="s0" d="m1034.5 646q-1.6 0.1-3.3 0.1-87.2 0-174.3 0c-1 0-2-0.1-3-0.1-2.2-4-4.3-8.1-6.5-12.1-3.6-6.4-7.3-12.8-11-19.2q-5.4-9.4-10.9-18.9c-3.3-5.8-6.6-11.6-10-17.4-3.5-6.2-7-12.5-10.6-18.7-4.5-7.9-9-15.7-13.5-23.6-3.5-6.1-7-12.3-10.5-18.4-4.4-7.7-8.9-15.4-13.3-23.1-3.6-6.2-7-12.5-10.6-18.7-4.2-7.3-8.4-14.5-12.6-21.8-4.4-7.7-8.7-15.4-13.1-23.1-5.2-9.1-10.5-18.1-15.7-27.2-5.2-9.1-10.3-18.2-15.5-27.3-5.2-9.1-10.5-18.2-15.7-27.2-5.2-9.1-10.3-18.3-15.5-27.3-7.3-12.8-14.8-25.6-22.1-38.4-6-10.5-12-21.1-18-31.7-6.8-11.9-13.7-23.8-20.6-35.8-3.6-6.4-7.2-12.8-10.9-19.2q-6.5-11.4-13.1-22.8c-1.9-3.3-3.9-6.5-5.8-9.8 5.5-9.7 11-19.4 16.5-29.2q13.9-24.2 27.7-48.3 16.5-28.8 32.9-57.5 5.4-9.4 10.7-18.8c0.7-1.3 1.5-2.5 2.5-4.2 122.1 213.3 243.9 426.2 365.8 639.1q0 0.3 0 0.6z"/>
			<path id="&lt;Path&gt;" class="s1" d="m7.7 646.1c1-2.1 1.9-4.1 3.1-6.1q14.3-25.1 28.7-50.2c12.2-21.2 24.4-42.4 36.5-63.7 9.9-17.1 19.7-34.3 29.5-51.5 11.4-19.8 22.8-39.6 34.1-59.4 9.9-17.2 19.7-34.4 29.5-51.5 11.4-19.9 22.8-39.7 34.1-59.5 9.3-16.1 18.4-32.3 27.7-48.4 9.8-17.1 19.6-34.1 29.4-51.2 9.8-17.1 19.6-34.3 29.4-51.5 11.4-19.8 22.8-39.6 34.2-59.5 9.2-16.1 18.4-32.2 27.6-48.4q10.5-18.3 21-36.6c0.3-0.5 0.7-0.9 1.3-1.6 2 3.5 3.9 6.8 5.8 10q10.4 18.2 20.8 36.4 10.1 17.7 20.2 35.4 10.3 18 20.6 35.9c5.9 10.4 11.9 20.8 17.8 31.2 1.3 2.4 2.4 4.8 3.6 7.2-0.3 0.8-0.5 1.7-1 2.5-5.6 9.8-11.3 19.7-16.9 29.6q-10.2 17.8-20.4 35.6c-6 10.4-11.9 20.8-17.8 31.2-6.8 11.9-13.6 23.7-20.4 35.6q-9 15.8-18 31.5c-6.7 11.8-13.6 23.7-20.4 35.6-7.5 13.2-15.1 26.5-22.7 39.8-9.1 16-18.3 32-27.5 48-7.6 13.4-15.2 26.7-22.8 40.1q-15 26.1-30 52.2c-8.4 14.7-16.8 29.5-25.2 44.2-9.8 17.1-19.6 34.1-29.4 51.2-1 1.9-1.9 3.9-2.9 5.8q-0.4 0.1-0.8 0.1-86.9 0-173.8 0-2.1 0.1-4.2 0.1-0.4-0.1-0.7-0.1z"/>
			<path id="&lt;Path&gt;" class="s2" d="m187.2 646c1-1.9 1.9-3.9 2.9-5.8 9.8-17.1 19.6-34.1 29.4-51.2 8.4-14.7 16.8-29.5 25.2-44.2q15-26.1 30-52.2c7.6-13.4 15.2-26.7 22.8-40.1 9.2-16 18.4-32 27.5-48 7.6-13.3 15.2-26.6 22.7-39.8 6.8-11.9 13.7-23.8 20.4-35.6q9-15.8 18-31.5c6.8-11.9 13.6-23.7 20.4-35.6 5.9-10.4 11.8-20.8 17.8-31.2q10.2-17.8 20.4-35.6c5.6-9.9 11.3-19.8 16.9-29.6 0.5-0.8 0.7-1.7 1-2.5 0.7 0.8 1.4 1.6 2 2.6 18.4 32.2 36.9 64.5 55.4 96.7 0.8 1.5 0.8 2.6-0.1 4.1-27.7 48.5-55.5 97-83.2 145.4q-50.9 89.2-101.9 178.3-15.4 26.9-30.8 53.9c-0.5 0.7-1 1.4-1.6 2.1-1.3 0-2.6-0.1-3.9-0.1q-55.6-0.1-111.3-0.1z"/>
			<path id="&lt;Path&gt;" class="s3" d="m578.4 164.3c1.9 3.3 3.9 6.5 5.8 9.8q6.6 11.4 13.1 22.8c3.7 6.4 7.3 12.8 10.9 19.2 6.9 12 13.8 23.9 20.6 35.8 6 10.6 12 21.2 18 31.7 7.3 12.8 14.8 25.6 22.1 38.4 5.2 9 10.3 18.2 15.5 27.3 5.2 9 10.5 18.1 15.7 27.2 5.2 9.1 10.3 18.2 15.5 27.3 5.2 9.1 10.5 18.1 15.7 27.2 4.4 7.7 8.7 15.4 13.1 23.1 4.2 7.3 8.4 14.5 12.6 21.8 3.6 6.2 7 12.5 10.6 18.7 4.4 7.7 8.9 15.4 13.3 23.1 3.5 6.1 7 12.3 10.5 18.4 4.5 7.9 9 15.7 13.5 23.6 3.6 6.2 7.1 12.5 10.6 18.7 3.4 5.8 6.7 11.6 10 17.4q5.5 9.5 10.9 18.9c3.7 6.4 7.4 12.8 11 19.2 2.2 4 4.3 8.1 6.5 12.1-1 0.1-2 0.1-3 0.1-35.9 0-71.8 0-107.7 0.1-2.4 0-3.7-0.8-4.9-2.9-18.5-32.4-37.1-64.8-55.7-97.2q-31-54-61.9-107.9-28-48.8-56-97.7-20.6-36-41.3-72c-2.3-4.1-2.3-4.1 0.1-8.3q25.5-44.6 51-89.2 1.9-3.3 3.9-6.7z"/>
			<path id="&lt;Path&gt;" class="s4" d="m166.7 824.7q-3 0-5.9 0-4-0.2-7.9-0.5c-0.2-0.9-0.5-1.9-0.5-2.8q0-26.1-0.1-52.2 0-2.8 0-5.6-0.3-0.1-0.6-0.2c-1.3 1.8-3 3.6-4.1 5.6-5.2 9.6-11.8 18.3-18.1 27.1-5.4 7.5-10.7 15.2-16 22.8-3.7 5.3-3.7 5.3-10.1 5.3q-1.3 0-2.6 0-4.3 0.3-8.5 0.5-3.9 0-7.8 0-1.5-0.3-3-0.5c-1.5-2-2.9-4-4.4-6-6.2-8.8-12.6-17.5-18.7-26.3-5.8-8.4-11.4-16.9-17.1-25.3q-0.9-1.2-1.8-2.4-0.4-0.5-0.9-0.9-0.1 0.5-0.1 1-0.2 19.1-0.2 38.2-0.1 8-0.1 15.9 0 0.3 0 0.6c-0.1 5.8-0.1 5.8-5.9 5.8q-0.6 0-1.2 0-2.4 0-4.8 0.1-0.6 0.2-1.2 0.4-2.4 0-4.8 0-3.3-0.2-6.6-0.5c-4.4-0.1-4.2 0.9-4.2-4.1q0-36.6 0.1-73.3 0-1.5 0-3c0.1-1.1 0.8-1.2 1.7-1.3q14.7 0 29.4 0c4.8 0.1 9.6 0.2 14.4 0.1 1.7 0 2.8 0.4 3.7 1.9 6.1 9.4 12.1 18.8 18.3 28.1 5.5 8.4 11.1 16.6 16.7 24.9 1.3 1.9 1.6 1.9 3.2-0.1 5.2-6.2 9.3-13 13.5-19.8 3.7-5.8 7.7-11.4 11.5-17.1 2.5-3.8 5-7.7 7.6-11.5 1.4-2 3-3.9 4.6-5.9 4.7 0 9.4 0.1 14.1 0.1 0.5 0 1.1-0.3 1.6-0.5 9.9 0 19.8-0.1 29.7-0.1 2.1 0 2.3 0.2 2.3 2.2-0.1 9.9 0.2 19.8-0.4 29.6-0.4 5.8 0.3 11.6 0.2 17.3-0.3 9.9-0.3 19.8-0.5 29.7 0 2.1-0.2 2.3-2.4 2.3-2.8 0-5.6 0-8.4-0.1q-1.9 0.3-3.7 0.5z"/>
			<path id="&lt;Path&gt;" class="s5" d="m759.1 828.5q-9-0.1-18-0.1v-0.1q-3.4-0.2-6.7-0.5-3 0-5.9-0.1-2.8-0.2-5.5-0.5-1.1 0-2.3-0.1-1.2-0.2-2.5-0.5-2.9-0.3-5.9-0.7-1.3-0.2-2.5-0.4-7.2-1.1-14.4-2.2-1.1-0.2-2.3-0.4-1.3-0.2-2.5-0.5c-4.4-1.3-8.8-2.6-13.1-4-1.3-0.4-1.7-1.3-1-2.5 0.2-0.4 0.4-0.7 0.6-1.1 2.8-4.3 5.7-8.6 8.5-13 0.8-1.3 1.5-1.7 3.1-1.3 7.2 1.7 14.4 3.4 21.6 4.9 3.9 0.8 7.9 1 11.9 1.4q2.8 0.3 5.6 0.6c0.8 0.2 1.7 0.6 2.5 0.6q11.8 0 23.5 0c1 0 1.9-0.4 2.9-0.6 8.4-0.4 16.6-1.4 24.2-5.3 1.3-0.6 2.5-1.6 3.4-2.7 1.2-1.5 0.8-2.5-0.8-3.4-2.7-1.5-5.5-2.3-8.6-2.4q-3.1 0-6.2-0.1-1.3-0.2-2.5-0.5-0.6 0-1.1 0c-0.7-0.2-1.3-0.5-2-0.5-3.1-0.1-6.3-0.1-9.5 0q-4.2-0.1-8.3-0.2-3.1-0.2-6.1-0.4-6.6-0.1-13.1-0.2-1.9-1.1-3.7 0-1.5 0-2.9 0c-0.8-0.2-1.5-0.5-2.3-0.5-2.4 0-4.9 0-7.4 0q-2.7-0.3-5.3-0.6-1.6-0.3-3.1-0.5c-7.3-0.6-14.1-2.8-19.9-7.3-6-4.7-8.5-11.5-6.5-18.6 1.1-3.9 3.9-6.5 6.9-8.9 7.9-6.1 16.7-9.9 26.7-11 3.1-0.3 6-1.2 9.1-1.8 1.3-0.2 2.7-0.4 4.1-0.5q1.8-0.3 3.7-0.6c2-0.2 4.1-0.3 6.2-0.6 7.5-1 15-0.7 22.5 0q2.8 0.3 5.5 0.5c5.4 0.7 10.8 1.4 16.3 2.1 3.2 0.4 6.5 0.5 9.8 1.1 8.2 1.4 16.4 3.1 24.6 5.7-0.4 0.8-0.6 1.4-0.9 2q-4.3 7.2-8.5 14.4c-0.6 1-1.1 1.9-2.6 1.1-6.5-3.2-13.8-3.5-20.7-5.4q-2.1-0.2-4.3-0.5-15.5-2.1-31.1-1.7-2.2 0.2-4.3 0.5c-4.3 0.6-8.7 1.1-13 1.9-5 0.9-9.9 1.9-14.9 3-1.4 0.3-2.7 0.7-3.9 1.4-0.7 0.5-1.4 1.5-1.6 2.3-0.3 1.3 0.9 1.8 1.8 2q3.5 0.9 7 1.3c1.4 0.2 2.8 0.1 4.2 0.1 0.7 0.2 1.3 0.5 2 0.6 4.1 0 8.3 0 12.5 0q6.6 0.3 13.1 0.6c0.7 0.2 1.3 0.6 2 0.6 7.5 0 15.1-0.1 22.7-0.1q4.8 0.4 9.5 0.7 1.3 0.3 2.5 0.5c5.8 0.8 11.6 1.5 17.4 2.5 3.4 0.6 6.3 2.3 9 4.5 3.5 2.9 4.6 7 5.2 11.1 0.4 2.6 0.9 5.2 0.4 8-0.8 4.2-2.9 7.4-6.1 9.9-3.7 2.7-7.4 5.3-11.6 7.3-6.1 2.8-12.4 4.9-18.7 6.8-3.1 0.9-6.3 1.1-9.4 1.7q-1.3 0.2-2.5 0.4-1.2 0.1-2.3 0.1-1.9 0.3-3.7 0.5-0.3 0.1-0.5 0.2z"/>
			<path id="&lt;Compound Path&gt;" fill-rule="evenodd" class="s5" d="m961.3 828.4q-9 0-18 0v-0.2q-1.2-0.2-2.4-0.4c-4.4-0.7-8.7-1.3-13-2.1-10.1-1.7-19-6.5-27.6-11.7-4-2.4-8-4.6-11.1-8.1-5.1-5.7-8.7-12.1-9.3-19.9-0.2-1.9 0.1-4 0.5-5.9 1.5-6.8 3.4-13.4 8.5-18.5 2.2-2.2 4.4-4.4 7-6.1 3.8-2.3 7.8-4.3 11.9-6.2 6.3-3 13-5.2 19.9-6.3 8.1-1.2 16.2-3.2 24.6-2.8q3.6 0.3 7.2 0.5 0.3 0 0.6 0.1c0.6 0.2 1.3 0.5 1.9 0.6 2.8 0 5.5 0 8.3 0 8.4 0.9 17 1.6 25.1 4 13.2 3.9 25.1 10.2 33.5 21.8 1.6 2.3 3 4.7 3.3 7.6 0.4 3.4 1 6.7 1.1 10.1 0.2 9.7-4.6 17.1-11.2 23.6-6.1 5.8-13.6 9-21.3 11.8-8.5 3.2-17.3 5.4-26.3 7q-2.4 0.2-4.9 0.4-1.4 0.1-2.9 0.1-2.7 0.3-5.4 0.5zm-4.2-68.3q-4 0.3-7.9 0.5c-2.9-0.1-5.7 0.4-8.5 1.3-4.1 1.3-8.3 2.2-12.3 3.7-2.6 0.9-4.8 2.9-7.4 3.9-2.8 1-5 2.8-6.9 5-2.4 2.9-4 6.5-3.6 10.2 0.4 4.2 2.6 7.9 5.4 11.1 4.1 4.9 9.8 7.1 15.8 8.5 4.6 1.2 9.3 2.1 14 3.2q1.8 0.2 3.6 0.5c2.4 0 4.8 0.3 7.2 0.1 4.9-0.5 9.9-1.2 14.8-1.8 8.1-1 15.8-3.1 22.8-7.5 6.3-3.8 10.1-12.2 8.3-19.3-0.4-1.5-1.2-3-2.2-4.1-3.8-4.4-8.4-7.8-14-9.4q-0.9-0.2-1.7-0.7c-5.2-2.7-10.8-3.9-16.6-4.7-0.7-0.2-1.5-0.5-2.2-0.5-2.9 0-5.8 0-8.6 0z"/>
			<path id="&lt;Compound Path&gt;" fill-rule="evenodd" class="s5" d="m329.3 828.4q-8.9 0-17.9 0v-0.1q-2.1-0.2-4.3-0.5c-12-1.6-23.7-4.5-34.2-11-2.2-1.4-4.4-2.8-6.7-4-6.5-3.5-11.4-8.5-15-15-2.1-3.9-3.4-8-3.3-12.3 0.4-12.1 4.9-22.5 15.3-29.7 3.1-2.2 6.7-3.9 10.2-5.6 7.3-3.3 14.8-5.9 22.7-7.3 2.3-0.4 4.5-0.7 6.8-1q1.2-0.2 2.5-0.4c4.9-0.9 9.9-1.4 14.9-1.2q3.7 0.2 7.3 0.4 1.8 0.1 3.5 0.1 3.4 0.3 6.7 0.5c8.4 0.9 17 1.6 25.1 4 13.4 3.9 25.5 10.2 34 22 2 2.9 2.9 6 3.6 9.4 1.9 9.3 0.6 17.9-5.2 25.5-2.4 3.1-5.3 6-8.2 8.6-4.4 4.1-10 6.2-15.5 8.4-9.3 3.8-19.1 6.3-29 8q-2.4 0.3-4.9 0.5-1.7 0.1-3.5 0.1-2.4 0.3-4.9 0.5zm-4.1-68.3c-1.1-0.1-2.2-0.2-3.3-0.1-1.7 0.1-3.5 0.4-5.2 0.6-2.6-0.2-5.1 0.4-7.6 1.1-3.9 1.2-8 2-11.8 3.4-2.9 1-5.4 3.1-8.2 4.2-3.2 1.2-5.6 3.1-7.5 5.7-3.2 4.6-4.3 9.4-1.6 14.9 3.6 7.5 9.7 11.7 17.4 13.8 5.4 1.5 10.9 2.5 16.3 3.7q1.6 0.3 3.1 0.5c2.4 0 4.8 0.3 7.1 0.1 4.4-0.3 8.8-0.8 13.2-1.3q1.3-0.2 2.5-0.5c7.5-1.1 14.7-3.1 21.5-6.8 5.4-2.9 8.2-7.6 9.3-13.2 1-4.9 0.1-9.3-4.2-12.9-3.8-3.3-7.8-6.1-12.7-7.6-0.6-0.1-1.1-0.5-1.6-0.7-4.1-2-8.4-3.2-12.9-3.9q-1.5-0.2-3-0.5-0.3 0-0.6-0.1c-0.7-0.1-1.5-0.4-2.2-0.5-2.7 0-5.4 0.1-8 0.1z"/>
			<path id="&lt;Compound Path&gt;" fill-rule="evenodd" class="s4" d="m496.8 799q0 10.8 0 21.5c0 0.8-0.1 1.6 0 2.4 0.1 1.3-0.4 2-1.8 1.9-2.6-0.1-5.2-0.1-7.8-0.1q-4.8-1.2-9.6 0-2.7 0.1-5.4 0.1-2.4 0.1-4.9 0.1c-0.1-1-0.4-1.9-0.4-2.9 0.1-6.1 0.4-12.2 0.4-18.3q0.1-10.4 0-20.9c0-2.2-0.4-4.4-0.4-6.6 0.2-10.6 0.4-21.2 0.6-31.7 3.2-0.1 6.5 0 9.7-0.1 0.9 0 1.9-0.4 2.8-0.5q0.6-0.1 1.2-0.2 5.1 0 10.2 0 0.6 0.1 1.2 0.2c0.6 0.2 1.2 0.5 1.9 0.5q4.2 0.1 8.5 0c0.5-0.1 1.1-0.4 1.6-0.6 11 0 21.9 0.1 32.9 0 8.2-0.1 16.5-0.4 24.7-0.6 0.5 0.2 1.1 0.5 1.6 0.6q3.5 0 6.9 0c6.9 0.3 13.6 1.4 20.3 3.2 3 0.8 6 2.1 8.7 3.8 1.9 1.2 3.5 3.2 4.8 5.2 2.4 3.4 4.2 7.2 4 11.6q-0.1 2.1-0.1 4.2c0.3 7.7-3.4 13.3-9.5 17.5-6.5 4.6-13.9 6.8-21.6 8-4.2-0.1-8.4-0.1-12.6-0.1-0.6 0-1.3 0.3-1.9 0.5q-1.5 0.1-3 0.2c-3.5-0.1-7.1-0.1-10.7 0-0.6 0-1.3 0.3-1.9 0.4q-5.1 0.1-10.2 0.1-2.7 0.3-5.4 0.5-6 0-11.9 0-2.2-0.2-4.3-0.4-6.9 0-13.8-0.1c-1.6 0.2-3.3-0.6-4.8 0.6zm64.2-20.3c3.8-0.7 7.5-1.1 11.2-2 1.7-0.4 3.4-1.5 4.9-2.7 2.2-1.8 1.9-5.3-0.3-7-2.4-1.8-5-2.8-8-2.8-6.6 0-13.2-0.1-19.7-0.1q-2.2-0.2-4.3-0.5-0.6 0.1-1.2 0.1-4.2 0-8.4 0-5.1-0.1-10.2-0.2c-0.6-0.1-1.3-0.4-1.9-0.5q-10.1 0-20.2 0c-0.6 0.1-1.3 0.4-1.9 0.5q-1.4 0.1-2.7 0.1c-2.1 0.1-2.1 0.1-2.2 2.3 0 3.4 0.1 6.8 0.1 10.2-0.1 1.5 0.5 2 2.1 2 3.7-0.1 7.4-0.1 11.1-0.1q1.5 0.3 3 0.5 3.6 0 7.2 0 2.7 0 5.4 0 13.5 0.1 27 0.1c3 0.9 6 1 9 0.1z"/>
		</g>
	</g>
</svg>